module gitlab.com/Marazo1/eclinic_api

go 1.21.4

require (
	github.com/andybalholm/brotli v1.0.5 // indirect
	github.com/go-sql-driver/mysql v1.7.1 // indirect
	github.com/gofiber/fiber/v2 v2.51.0 // indirect
	github.com/google/uuid v1.4.0 // indirect
	github.com/jinzhu/inflection v1.0.0 // indirect
	github.com/jinzhu/now v1.1.5 // indirect
	github.com/joho/godotenv v1.5.1 // indirect
	github.com/klauspost/compress v1.16.7 // indirect
	github.com/mattn/go-colorable v0.1.13 // indirect
	github.com/mattn/go-isatty v0.0.20 // indirect
	github.com/mattn/go-runewidth v0.0.15 // indirect
	github.com/rivo/uniseg v0.2.0 // indirect
	github.com/valyala/bytebufferpool v1.0.0 // indirect
	github.com/valyala/fasthttp v1.50.0 // indirect
	github.com/valyala/tcplisten v1.0.0 // indirect
	golang.org/x/sys v0.14.0 // indirect
	gorm.io/driver/mysql v1.5.2 // indirect
	gorm.io/gorm v1.25.5 // indirect
)
